[
  "/content/enforced/434127-NA_CHX_21YR_25897/template/template.html",
  "/content/enforced/434127-NA_CHX_21YR_25897/style guide/Style for BoN content - Copy.html",
  "/content/enforced/434127-NA_CHX_21YR_25897/style guide/Style for BoN content.html",
  "/content/enforced/434127-NA_CHX_21YR_25897/Introduction-and-Unit-Outline/ICB Conversion - Copy.html",
  "/content/enforced/434127-NA_CHX_21YR_25897/Introduction-and-Unit-Outline/ICB Conversion.html",
  "/content/enforced/434127-NA_CHX_21YR_25897/Introduction-and-Unit-Outline/Test - Copy.html",
  "/content/enforced/434127-NA_CHX_21YR_25897/Introduction-and-Unit-Outline/Test.html",
  "/content/enforced/434127-NA_CHX_21YR_25897/Module-1-Insert-title-here/Content page.html",
  "/content/enforced/434127-NA_CHX_21YR_25897/Module-1-Insert-title-here/Module introduction.html",
  "/content/enforced/434127-NA_CHX_21YR_25897/MedEd-2021-Workshop-D2L-Templates/Course Introduction - Copy.html",
  "/content/enforced/434127-NA_CHX_21YR_25897/MedEd-2021-Workshop-D2L-Templates/Course Introduction.html",
  "/content/enforced/434127-NA_CHX_21YR_25897/MedEd-2021-Workshop-D2L-Templates/Existing ICB content - Copy.html",
  "/content/enforced/434127-NA_CHX_21YR_25897/MedEd-2021-Workshop-D2L-Templates/Existing ICB content.html",
  "/content/enforced/434127-NA_CHX_21YR_25897/Enhancing-student-engagement-and-interaction-in-an-online-environment/Benefits of using learning technologies.html",
  "/content/enforced/434127-NA_CHX_21YR_25897/Enhancing-student-engagement-and-interaction-in-an-online-environment/Choosing the correct tool.html",
  "/content/enforced/434127-NA_CHX_21YR_25897/Enhancing-student-engagement-and-interaction-in-an-online-environment/Chunk 1.html",
  "/content/enforced/434127-NA_CHX_21YR_25897/Enhancing-student-engagement-and-interaction-in-an-online-environment/Enhancing student engagement and interaction in an online environment.html",
  "/content/enforced/434127-NA_CHX_21YR_25897/Enhancing-student-engagement-and-interaction-in-an-online-environment/Summary.html",
  "/content/enforced/434127-NA_CHX_21YR_25897/Introduction-to-the-new-MyLO-Templates/Example page - Copy.html",
  "/content/enforced/434127-NA_CHX_21YR_25897/Introduction-to-the-new-MyLO-Templates/Example page.html",
  "/content/enforced/434127-NA_CHX_21YR_25897/Introduction-to-the-new-MyLO-Templates/New web page.html",
  "/content/enforced/434127-NA_CHX_21YR_25897/Introduction-to-the-new-MyLO-Templates/Old ICB page - Copy.html",
  "/content/enforced/434127-NA_CHX_21YR_25897/Introduction-to-the-new-MyLO-Templates/Old ICB page.html",
  "/content/enforced/434127-NA_CHX_21YR_25897/Essential-unit-information/(TBU) Professional Experience Placement (PEP) - Copy.html",
  "/content/enforced/434127-NA_CHX_21YR_25897/Essential-unit-information/(TBU) Professional Experience Placement (PEP).html",
  "/content/enforced/434127-NA_CHX_21YR_25897/Essential-unit-information/Intensive (on campus learning) - Copy.html",
  "/content/enforced/434127-NA_CHX_21YR_25897/Essential-unit-information/Intensive (on campus learning).html",
  "/content/enforced/434127-NA_CHX_21YR_25897/Essential-unit-information/Meet the unit coordinator (TBU) - Copy.html",
  "/content/enforced/434127-NA_CHX_21YR_25897/Essential-unit-information/Meet the unit coordinator (TBU).html",
  "/content/enforced/434127-NA_CHX_21YR_25897/Essential-unit-information/Online support and resources - Copy.html",
  "/content/enforced/434127-NA_CHX_21YR_25897/Essential-unit-information/Online support and resources.html",
  "/content/enforced/434127-NA_CHX_21YR_25897/Essential-unit-information/Registered Nurses Standards for Practice (TBU) - Copy.html",
  "/content/enforced/434127-NA_CHX_21YR_25897/Essential-unit-information/Registered Nurses Standards for Practice (TBU).html",
  "/content/enforced/434127-NA_CHX_21YR_25897/Essential-unit-information/Unit structure and key dates.html",
  "/content/enforced/434127-NA_CHX_21YR_25897/Essential-unit-information/Unit structure copy - Copy.html",
  "/content/enforced/434127-NA_CHX_21YR_25897/Essential-unit-information/Unit structure copy.html",
  "/content/enforced/434127-NA_CHX_21YR_25897/module-3--intensive-preparation-and-goal-setting/3.1-introduction-to-module-3 - Copy.html",
  "/content/enforced/434127-NA_CHX_21YR_25897/module-3--intensive-preparation-and-goal-setting/3.1-introduction-to-module-3.html",
  "/content/enforced/434127-NA_CHX_21YR_25897/module-3--intensive-preparation-and-goal-setting/3.2-intensive-preparation - Copy.html",
  "/content/enforced/434127-NA_CHX_21YR_25897/module-3--intensive-preparation-and-goal-setting/3.2-intensive-preparation.html",
  "/content/enforced/434127-NA_CHX_21YR_25897/module-3--intensive-preparation-and-goal-setting/3.3-goal-setting - Copy.html",
  "/content/enforced/434127-NA_CHX_21YR_25897/module-3--intensive-preparation-and-goal-setting/3.3-goal-setting.html",
  "/content/enforced/434127-NA_CHX_21YR_25897/module-2--completing-your-pep-workbook/2.1-introduction-to-module-2 - Copy.html",
  "/content/enforced/434127-NA_CHX_21YR_25897/module-2--completing-your-pep-workbook/2.1-introduction-to-module-2.html",
  "/content/enforced/434127-NA_CHX_21YR_25897/module-2--completing-your-pep-workbook/2.2-pep-assessment - Copy.html",
  "/content/enforced/434127-NA_CHX_21YR_25897/module-2--completing-your-pep-workbook/2.2-pep-assessment.html",
  "/content/enforced/434127-NA_CHX_21YR_25897/module-2--completing-your-pep-workbook/2.3-other-compulsory-pep-activities - Copy.html",
  "/content/enforced/434127-NA_CHX_21YR_25897/module-2--completing-your-pep-workbook/2.3-other-compulsory-pep-activities.html",
  "/content/enforced/434127-NA_CHX_21YR_25897/module-2--completing-your-pep-workbook/2.4-scope-of-practice - Copy.html",
  "/content/enforced/434127-NA_CHX_21YR_25897/module-2--completing-your-pep-workbook/2.4-scope-of-practice.html",
  "/content/enforced/434127-NA_CHX_21YR_25897/module-2--completing-your-pep-workbook/2.5-module-summary - Copy.html",
  "/content/enforced/434127-NA_CHX_21YR_25897/module-2--completing-your-pep-workbook/2.5-module-summary.html",
  "/content/enforced/434127-NA_CHX_21YR_25897/Assessment-and-resources/Assessment-task-2/Assessment 2 - Copy.html",
  "/content/enforced/434127-NA_CHX_21YR_25897/Assessment-and-resources/Assessment-task-2/Assessment 2.html",
  "/content/enforced/434127-NA_CHX_21YR_25897/Assessment-and-resources/Assessment-task-1-Log-PEP-Workbook/Assessment 1.html",
  "/content/enforced/434127-NA_CHX_21YR_25897/Assessment-and-resources/Assessment-task-3/Assessment 3 - Copy.html",
  "/content/enforced/434127-NA_CHX_21YR_25897/Assessment-and-resources/Assessment-task-3/Assessment 3 pilot - Copy.html",
  "/content/enforced/434127-NA_CHX_21YR_25897/Assessment-and-resources/Assessment-task-3/Assessment 3 pilot.html",
  "/content/enforced/434127-NA_CHX_21YR_25897/Assessment-and-resources/Assessment-task-3/Assessment 3.html",
  "/content/enforced/434127-NA_CHX_21YR_25897/Assessment-and-resources/Assessment-task-1/Assessment 1.html",
  "/content/enforced/434127-NA_CHX_21YR_25897/module-1--preparation-for-pep/1.1-introduction-to-module-1 - Copy.html",
  "/content/enforced/434127-NA_CHX_21YR_25897/module-1--preparation-for-pep/1.1-introduction-to-module-1.html",
  "/content/enforced/434127-NA_CHX_21YR_25897/module-1--preparation-for-pep/1.2-preparation-for-pep - Copy.html",
  "/content/enforced/434127-NA_CHX_21YR_25897/module-1--preparation-for-pep/1.2-preparation-for-pep.html",
  "/content/enforced/434127-NA_CHX_21YR_25897/module-1--preparation-for-pep/1.3-expectations - Copy.html",
  "/content/enforced/434127-NA_CHX_21YR_25897/module-1--preparation-for-pep/1.3-expectations.html",
  "/content/enforced/434127-NA_CHX_21YR_25897/module-1--preparation-for-pep/1.4-student-support - Copy.html",
  "/content/enforced/434127-NA_CHX_21YR_25897/module-1--preparation-for-pep/1.4-student-support.html",
  "/content/enforced/434127-NA_CHX_21YR_25897/module-1--preparation-for-pep/1.5-privacy---confidentiality - Copy.html",
  "/content/enforced/434127-NA_CHX_21YR_25897/module-1--preparation-for-pep/1.5-privacy---confidentiality.html",
  "/content/enforced/434127-NA_CHX_21YR_25897/module-1--preparation-for-pep/1.6-work-health---safety - Copy.html",
  "/content/enforced/434127-NA_CHX_21YR_25897/module-1--preparation-for-pep/1.6-work-health---safety.html",
  "/content/enforced/434127-NA_CHX_21YR_25897/module-1--preparation-for-pep/1.7-absence-notification - Copy.html",
  "/content/enforced/434127-NA_CHX_21YR_25897/module-1--preparation-for-pep/1.7-absence-notification.html",
  "/content/enforced/434127-NA_CHX_21YR_25897/module-1--preparation-for-pep/1.8-problems-issues-concerns - Copy.html",
  "/content/enforced/434127-NA_CHX_21YR_25897/module-1--preparation-for-pep/1.8-problems-issues-concerns.html",
  "/content/enforced/434127-NA_CHX_21YR_25897/BN to HTML Demo/★ 7.3 Digestive Nursing - Copy.html",
  "/content/enforced/434127-NA_CHX_21YR_25897/BN to HTML Demo/★ 7.3 Digestive Nursing.html",
  "/content/enforced/434127-NA_CHX_21YR_25897/BN to HTML Demo/★ 7.9 Preparation for Intensive 3 (on campus).  - Copy.html",
  "/content/enforced/434127-NA_CHX_21YR_25897/BN to HTML Demo/★ 7.9 Preparation for Intensive 3 (on campus). .html",
  "/content/enforced/434127-NA_CHX_21YR_25897/BN to HTML Demo/★7.4 Complications of the digestive system - Copy.html",
  "/content/enforced/434127-NA_CHX_21YR_25897/BN to HTML Demo/★7.4 Complications of the digestive system.html",
  "/content/enforced/434127-NA_CHX_21YR_25897/BN to HTML Demo/★7.7 Case Studies - Copy.html",
  "/content/enforced/434127-NA_CHX_21YR_25897/BN to HTML Demo/★7.7 Case Studies.html",
  "/content/enforced/434127-NA_CHX_21YR_25897/BN to HTML Demo/★7.8 Clinical Nursing Skill Nasogastric tube insertion and management - Copy.html",
  "/content/enforced/434127-NA_CHX_21YR_25897/BN to HTML Demo/★7.8 Clinical Nursing Skill Nasogastric tube insertion and management.html",
  "/content/enforced/434127-NA_CHX_21YR_25897/BN to HTML Demo/7. 5 Acute Digestive Disorders - Copy.html",
  "/content/enforced/434127-NA_CHX_21YR_25897/BN to HTML Demo/7. 5 Acute Digestive Disorders.html",
  "/content/enforced/434127-NA_CHX_21YR_25897/BN to HTML Demo/7.1 Introduction to module D - Copy.html",
  "/content/enforced/434127-NA_CHX_21YR_25897/BN to HTML Demo/7.1 Introduction to module D.html",
  "/content/enforced/434127-NA_CHX_21YR_25897/BN to HTML Demo/7.2 Gastro-Intestinal (GI) system anatomy and physiology knowledge - Copy.html",
  "/content/enforced/434127-NA_CHX_21YR_25897/BN to HTML Demo/7.2 Gastro-Intestinal (GI) system anatomy and physiology knowledge.html",
  "/content/enforced/434127-NA_CHX_21YR_25897/BN to HTML Demo/7.5 Chronic Digestive Disorders - Copy.html",
  "/content/enforced/434127-NA_CHX_21YR_25897/BN to HTML Demo/7.5 Chronic Digestive Disorders.html",
  "/content/enforced/434127-NA_CHX_21YR_25897/BN to HTML Demo/7.6 Nutritional Considerations - Copy.html",
  "/content/enforced/434127-NA_CHX_21YR_25897/BN to HTML Demo/7.6 Nutritional Considerations.html",
  "/content/enforced/434127-NA_CHX_21YR_25897/Getting Help - Copy.html",
  "/content/enforced/434127-NA_CHX_21YR_25897/Getting Help.html",
  "/content/enforced/434127-NA_CHX_21YR_25897/Using-MyLO-Templates-effectively/Design-2/BUILDING ELEARNING COMMUNITY OF PRACTICE.html",
  "/content/enforced/434127-NA_CHX_21YR_25897/Using-MyLO-Templates-effectively/Design-2/BUILDING%20ELEARNING%20COMMUNITY%20OF%20PRACTICE-copy.html",
  "/content/enforced/434127-NA_CHX_21YR_25897/Using-MyLO-Templates-effectively/Design-3/Feature Highlight.html",
  "/content/enforced/434127-NA_CHX_21YR_25897/Using-MyLO-Templates-effectively/Design-3/MyLO MATE Overview.html",
  "/content/enforced/434127-NA_CHX_21YR_25897/Using-MyLO-Templates-effectively/Design-3/Overview.html",
  "/content/enforced/434127-NA_CHX_21YR_25897/style guide.html",
  "/content/enforced/434127-NA_CHX_21YR_25897/Unit Overview and Introduction - Copy.html",
  "/content/enforced/434127-NA_CHX_21YR_25897/Unit Overview and Introduction.html",
  "/content/enforced/434127-NA_CHX_21YR_25897/Week One - Copy.html",
  "/content/enforced/434127-NA_CHX_21YR_25897/Week One.html",
  "/content/enforced/434127-NA_CHX_21YR_25897/Week Two - Copy.html",
  "/content/enforced/434127-NA_CHX_21YR_25897/Week Two.html",
  "/content/enforced/434127-NA_CHX_21YR_25897/Week%20One%20-%20Copy-copy.html"
]
